<?xml version="1.0" encoding="UTF-8" standalone="no"?>
<svg
   xmlns:dc="http://purl.org/dc/elements/1.1/"
   xmlns:cc="http://creativecommons.org/ns#"
   xmlns:rdf="http://www.w3.org/1999/02/22-rdf-syntax-ns#"
   xmlns:svg="http://www.w3.org/2000/svg"
   xmlns="http://www.w3.org/2000/svg"
   xmlns:sodipodi="http://sodipodi.sourceforge.net/DTD/sodipodi-0.dtd"
   xmlns:inkscape="http://www.inkscape.org/namespaces/inkscape"
   id="Layer_1"
   data-name="Layer 1"
   viewBox="0 0 1203 620.00002"
   version="1.1"
   sodipodi:docname="smat-social-media.svg"
   width="1203"
   height="620"
   inkscape:version="0.92.3 (2405546, 2018-03-11)">
  <metadata
     id="metadata104">
    <rdf:RDF>
      <cc:Work
         rdf:about="">
        <dc:format>image/svg+xml</dc:format>
        <dc:type
           rdf:resource="http://purl.org/dc/dcmitype/StillImage" />
        <dc:title></dc:title>
      </cc:Work>
    </rdf:RDF>
  </metadata>
  <sodipodi:namedview
     pagecolor="#ffffff"
     bordercolor="#666666"
     borderopacity="1"
     objecttolerance="10"
     gridtolerance="10"
     guidetolerance="10"
     inkscape:pageopacity="0"
     inkscape:pageshadow="2"
     inkscape:window-width="1920"
     inkscape:window-height="1080"
     id="namedview102"
     showgrid="false"
     inkscape:zoom="0.43896155"
     inkscape:cx="797.91968"
     inkscape:cy="614.25088"
     inkscape:window-x="0"
     inkscape:window-y="0"
     inkscape:window-maximized="0"
     inkscape:current-layer="Layer_1" />
  <defs
     id="defs79">
    <style
       id="style77">.cls-1{fill:#2a1368;}.cls-2{fill:#fff;}.cls-3{fill:#6c2eed;}</style>
  </defs>
  <path
     class="cls-1"
     d="m 399.40853,217.08865 c -87.47043,0 -158.63511,71.16316 -158.63511,158.63511 0,87.47198 71.16166,158.63365 158.63216,158.63365 87.47044,0 158.63513,-71.16316 158.63513,-158.63365 0,-87.47045 -71.1602,-158.63511 -158.63218,-158.63511 z m 73.22888,236.64406 c -6.29274,9.66929 -15.68248,17.29232 -27.9137,22.6658 -11.33589,4.97589 -25.23372,7.49896 -41.31084,7.49896 -15.26997,0 -29.87178,-2.81754 -43.4019,-8.37785 -14.11455,-5.7935 -25.31293,-13.66764 -33.27973,-23.40717 l -9.98614,-12.21029 28.04674,-26.04084 11.3598,13.37615 c 4.11046,4.84138 10.44355,9.08336 18.8214,12.60639 8.86514,3.73678 18.086,5.5424 28.17375,5.5424 14.67063,0 25.81372,-2.65611 32.22451,-7.67833 5.48708,-4.30328 7.93392,-9.20742 7.93392,-15.90523 0,-7.49896 -2.3781,-10.12216 -3.15833,-10.98462 -3.21956,-3.54994 -7.14024,-6.16717 -11.9816,-7.99072 -6.65296,-2.49617 -15.93659,-5.15974 -27.58191,-7.9115 -14.26399,-3.51705 -25.27103,-6.82336 -33.81181,-10.14311 A 66.248559,66.248559 0 0 1 340.3406,366.11278 c -8.11479,-9.40472 -12.22972,-21.5866 -12.22972,-36.20935 0,-11.44052 3.03427,-22.09782 9.02055,-31.68788 6.08047,-9.73205 15.33575,-17.45672 27.50271,-22.96623 11.3,-5.1149 25.03933,-7.70821 40.83698,-7.70821 a 109.21999,109.21999 0 0 1 33.65043,5.35107 c 11.02944,3.57532 20.75852,8.46604 28.93007,14.54203 l 12.99501,9.66331 -21.83618,31.71178 -13.94713,-10.2044 c -5.51548,-4.03572 -11.80824,-7.15816 -18.70631,-9.27617 -7.07599,-2.17181 -14.08467,-3.27343 -20.81687,-3.27343 -14.09211,0 -24.47435,2.61726 -30.85827,7.78297 -5.53042,4.48414 -8.0072,9.51533 -8.0072,16.32524 0,7.58117 2.43491,10.30304 3.23456,11.19836 3.19868,3.58732 7.1089,6.20007 11.96815,8.00716 6.80093,2.53206 16.28338,5.30473 28.19625,8.24034 13.94861,3.48268 24.84956,6.783 33.38135,10.09228 10.30004,4.01482 19.12036,10.17899 26.24412,18.32667 8.08043,9.2672 12.17146,21.29663 12.17146,35.77588 0.006,11.54215 -3.1718,22.28314 -9.43315,31.92851 z"
     id="path81"
     inkscape:connector-curvature="0"
     style="fill:#2a1368;stroke-width:0.14947106" />
  <path
     class="cls-2"
     d="m 443.65947,367.70763 c -8.5318,-3.30928 -19.43127,-6.6096 -33.38141,-10.09226 -11.91282,-2.93562 -21.39526,-5.70831 -28.19619,-8.24035 -4.85927,-1.80711 -8.76947,-4.42135 -11.96815,-8.00717 -0.79965,-0.89682 -3.23457,-3.61719 -3.23457,-11.19836 0,-6.80991 2.47077,-11.8441 8.00721,-16.32523 6.38387,-5.16573 16.76616,-7.78296 30.85827,-7.78296 6.72618,0 13.74088,1.1016 20.81687,3.27341 6.8966,2.118 13.19083,5.24194 18.70624,9.27617 l 13.9472,10.20439 21.83619,-31.71178 -12.99503,-9.66181 c -8.17155,-6.07599 -17.90063,-10.9667 -28.93007,-14.54202 a 109.21999,109.21999 0 0 0 -33.64446,-5.34211 c -15.79759,0 -29.53699,2.59332 -40.83697,7.70821 -12.17293,5.50951 -21.42821,13.23418 -27.50271,22.96625 -5.98628,9.58256 -9.02056,20.23987 -9.02056,31.68786 0,14.62275 4.11494,26.80462 12.22973,36.20935 a 66.248559,66.248559 0 0 0 26.42646,18.64502 c 8.54079,3.31976 19.54783,6.62606 33.81184,10.14312 11.64531,2.75175 20.92598,5.41532 27.58189,7.91149 4.84137,1.82355 8.76204,4.4408 11.98161,7.99072 0.78027,0.86246 3.15833,3.48567 3.15833,10.98463 0,6.6978 -2.44684,11.60195 -7.93392,15.90522 -6.4108,5.02223 -17.55389,7.67833 -32.22444,7.67833 -10.09078,0 -19.30869,-1.81309 -28.17382,-5.54239 -8.37786,-3.52302 -14.71095,-7.76501 -18.8214,-12.60638 l -11.35981,-13.37616 -28.0527,26.03934 9.98614,12.2088 c 7.9668,9.73952 19.16518,17.61366 33.27973,23.40716 13.53012,5.56032 28.13193,8.37786 43.4019,8.37786 16.07712,0 29.97495,-2.52308 41.31084,-7.49896 12.23122,-5.38095 21.62096,-13.00399 27.9137,-22.6658 6.26135,-9.64388 9.43763,-20.38637 9.43763,-31.92852 0,-14.47924 -4.09102,-26.51017 -12.17145,-35.77589 -7.12382,-8.14617 -15.94408,-14.31034 -26.24412,-18.31918 z"
     id="path83"
     inkscape:connector-curvature="0"
     style="fill:#ffffff;stroke-width:0.14947106" />
  <circle
     class="cls-1"
     cx="406.18713"
     cy="560.44324"
     r="46.570698"
     transform="rotate(-45)"
     id="circle85"
     style="fill:#2a1368;stroke-width:0.14947106" />
  <circle
     class="cls-1"
     cx="198.53712"
     cy="761.14722"
     r="33.481518"
     transform="rotate(-45)"
     id="circle87"
     style="fill:#2a1368;stroke-width:0.14947106" />
  <circle
     class="cls-1"
     cx="379.03641"
     cy="771.46552"
     r="70.131813"
     transform="rotate(-45)"
     id="circle89"
     style="fill:#2a1368;stroke-width:0.14947106" />
  <path
     class="cls-3"
     d="m 601.80435,308.23609 c 45.39733,-12.92176 86.54372,-19.87966 122.30171,-20.66886 6.89357,-0.14946 13.5899,-0.0732 20.04852,0.23468 a 70.267839,70.267839 0 0 1 -0.75777,-10.31351 q 0,-2.9386 0.24059,-5.8189 -8.37033,-0.36172 -17.15779,-0.24214 c -37.17795,0.51567 -79.85638,7.47355 -126.85011,20.69725 q -26.95261,7.57818 -55.8304,17.91859 a 157.65758,157.65758 0 0 1 5.93401,14.96953 q 26.87939,-9.60501 52.07124,-16.77664 z"
     id="path91"
     inkscape:connector-curvature="0"
     style="fill:#6c2eed;stroke-width:0.14947106" />
  <path
     class="cls-3"
     d="m 555.18731,203.36123 c 28.13642,-23.87351 58.9484,-45.71721 91.96058,-65.22319 a 46.552761,46.552761 0 0 1 -7.74863,-14.11455 c -34.11823,20.12776 -65.95857,42.70089 -95.0232,67.40248 a 622.3975,622.3975 0 0 0 -55.50906,53.36115 159.4602,159.4602 0 0 1 12.85448,9.79933 606.96012,606.96012 0 0 1 53.46583,-51.22522 z"
     id="path93"
     inkscape:connector-curvature="0"
     style="fill:#6c2eed;stroke-width:0.14947106" />
  <path
     class="cls-3"
     d="m 593.17535,244.84243 c 10.99211,-4.5215 20.55976,-7.6559 28.52658,-9.82921 3.67101,14.49869 16.83344,25.27107 32.46212,25.27107 18.46267,0 33.4815,-15.02035 33.4815,-33.48151 0,-18.46118 -15.02036,-33.48152 -33.4815,-33.48152 -15.54501,0 -28.65365,10.65279 -32.40384,25.04239 -9.24027,2.30782 -20.27572,5.75462 -33.00319,10.90092 -23.09182,9.33445 -47.49146,22.51333 -72.58618,39.19428 a 160.14778,160.14778 0 0 1 10.34192,12.45394 c 23.08878,-15.24607 45.48854,-27.36665 66.66259,-36.07036 z"
     id="path95"
     inkscape:connector-curvature="0"
     style="fill:#6c2eed;stroke-width:0.14947106" />
  <path
     class="cls-3"
     d="m 575.65589,410.00795 c 16.60472,1.64419 32.98673,2.46478 49.05339,2.46478 q 11.871,0 23.49684,-0.59789 a 33.272256,33.272256 0 0 1 -3.09109,-14.03981 c 0,-0.64573 0.0207,-1.28844 0.0567,-1.92518 -21.90644,1.0134 -44.57074,0.38562 -67.69243,-1.89083 q -10.0564,-0.99099 -20.22643,-2.39153 a 158.28086,158.28086 0 0 1 -2.41248,15.91418 q 10.45701,1.43492 20.81539,2.46628 z"
     id="path97"
     inkscape:connector-curvature="0"
     style="fill:#6c2eed;stroke-width:0.14947106" />
  <path
     class="cls-3"
     d="m 789.96741,451.68496 c -25.4549,0 -46.20293,20.53134 -46.56317,45.90257 -39.63374,0.44842 -72.85371,-3.69194 -94.0173,-7.32409 -41.24354,-7.06997 -79.00288,-19.05307 -112.38578,-35.64735 a 158.73826,158.73826 0 0 1 -8.78595,13.60186 c 35.31707,17.78706 75.28859,30.55039 118.92966,37.98658 a 530.23661,530.23661 0 0 0 55.81848,6.42726 c 11.47189,0.71596 23.01854,1.0762 34.47402,1.0762 q 4.30032,0 8.57963,-0.0688 c 6.37048,18.1383 23.66727,31.17966 43.95491,31.17966 25.67913,0 46.57219,-20.89156 46.57219,-46.57068 0,-25.67914 -20.89756,-46.56323 -46.57669,-46.56323 z"
     id="path99"
     inkscape:connector-curvature="0"
     style="fill:#6c2eed;stroke-width:0.14947106" />
</svg>
